{
    "user": {
        "name": "Ricardo",
        "last_name": "De Las Toninas",
        "email": "ricardodelastoninas@gmail.com",
        "password": "contraseñadericardo",
        "picture": "/media/perfil.png"
    }
}