<?xml version="1.0" encoding="UTF-8"?>
<svg width="39px" height="34px" viewBox="0 0 39 34" version="1.1" xmlns="http://www.w3.org/2000/svg" xmlns:xlink="http://www.w3.org/1999/xlink">
    <!-- Generator: Sketch 57.1 (83088) - https://sketch.com -->
    <title>food/ensaladas</title>
    <desc>Created with Sketch.</desc>
    <g id="food/ensaladas" stroke="none" stroke-width="1" fill="none" fill-rule="evenodd">
        <path d="M32.9989291,12.7986241 C33.0410656,10.7015843 31.8364887,8.81511014 29.9698422,7.99977416 C29.6975351,6.21023556 28.2870161,4.81167049 26.5341382,4.57471684 C26.518337,4.39646307 26.4851545,4.21874783 26.4351174,4.04318671 C26.1259409,2.96397054 25.1952512,2.15132722 24.120244,2.02100271 C23.4334193,1.9375304 22.7555485,2.11470711 22.2035605,2.51052741 C21.7131971,2.1787923 21.1427743,2 20.5581306,2 C19.0522778,2 17.800824,3.13737753 17.5827677,4.61618373 C17.5290437,4.62749288 17.4774265,4.64311028 17.4247559,4.65603502 C17.3752455,4.53378848 17.324155,4.41315753 17.2662173,4.29575777 C16.4966997,2.73832604 15.1377979,1.83305538 13.8784436,2.04092836 C13.0520417,2.17825377 12.3673237,2.75232784 11.9654469,3.61828573 C11.2385925,3.27631853 10.4969903,3.21815718 9.8270201,3.45941908 C9.1122799,3.71683691 8.55713165,4.26667709 8.22161985,5.05023973 C7.77655318,6.08852755 7.77602648,7.42354597 8.20634537,8.69340213 C7.62644194,9.10053158 7.1929628,9.69883955 6.93961716,10.4490133 C6.51351191,11.7086373 6.65572256,13.2283719 7.32937969,14.6204746 C7.40311854,14.7723404 7.48370458,14.923129 7.5716645,15.0712251 C6.93909045,15.4918178 6.46558165,16.1154367 6.21170931,16.8763811 C5.80825242,18.0837676 5.98680579,19.5065666 6.70154599,20.7785769 C7.02968391,21.3628831 7.46421645,21.8922591 7.97038103,22.3273921 C7.80130837,23.0511778 7.92929796,23.8465881 8.34118214,24.5666041 C8.92108558,25.5779654 9.96396369,26.2597457 11.0626727,26.3690675 C12.793429,29.6923424 14.9408098,31.1194497 18.245364,32.5519422 L18.2822334,32.5680981 C18.7467882,32.8659058 19.2766546,33 19.8007272,33 C20.1120105,33 20.4190801,32.9509937 20.7087685,32.8669828 C20.7135089,32.8653672 20.7182492,32.8659058 20.7229896,32.8642902 C20.7250964,32.8632131 20.7266765,32.8615975 20.7287833,32.8605205 C20.9752818,32.7867417 21.2101927,32.6892676 21.4187683,32.5648669 C22.4184566,31.9681746 22.8234936,30.9487353 22.4753408,29.9050622 C21.476706,26.9092141 21.5578188,24.6592315 22.7170989,23.2191995 C24.7233225,20.7274164 29.3778245,21.3397262 29.4236479,21.3478042 L29.9651018,21.4231985 L30.0193526,20.8674345 C30.0267264,20.7941943 30.1821047,19.0590473 29.1918972,17.8802029 C29.1344863,17.8118095 29.0739151,17.7466472 29.011237,17.6847161 C29.290918,17.6211695 29.5679654,17.5306963 29.8397458,17.412758 C31.7185065,16.6006532 32.9588994,14.7901119 32.9989291,12.7986241 L32.9989291,12.7986241 L32.9989291,12.7986241 L32.9989291,12.7986241 L32.9989291,12.7986241 L32.9989291,12.7986241 L32.9989291,12.7986241 L32.9989291,12.7986241 L32.9989291,12.7986241 L32.9989291,12.7986241 L32.9989291,12.7986241 Z M11.8590523,25.6005837 L11.7115746,25.3043916 L11.3865969,25.3065458 L11.3729026,25.3065458 C10.5433404,25.3065458 9.69165663,24.7917101 9.25080361,24.0216107 C8.92951287,23.4604614 8.86367461,22.8481516 9.07014341,22.3413939 L9.23026207,21.9488048 L8.89422356,21.6983879 C8.37647145,21.3127997 7.93403831,20.8092732 7.6148544,20.2411229 C7.05180556,19.2378396 6.90327444,18.1376207 7.20876399,17.2231951 C7.43735444,16.5392606 7.89611547,16.0351956 8.5355367,15.764853 L9.15968345,15.5015114 L8.75780668,14.9473629 C8.5697726,14.6872524 8.4064937,14.4163713 8.27376376,14.1422591 C7.73283657,13.0242686 7.6059004,11.7748767 7.93561843,10.800674 C8.15367476,10.1544368 8.552918,9.67406713 9.08910483,9.41234105 L9.53996527,9.19154333 L9.34771753,8.71925162 L9.32454246,8.66809117 C8.86156779,7.55010076 8.80942388,6.36156278 9.18654546,5.48268015 C9.3366567,5.13209645 9.63108542,4.67219095 10.1772797,4.47562713 C10.7029324,4.28606421 11.3312928,4.41746578 11.9501725,4.84290529 L12.5579913,5.26188243 L12.7518192,4.53863526 C12.9698755,3.72760753 13.4418042,3.20469391 14.0475162,3.10452714 C14.8370487,2.96720172 15.7724788,3.66298381 16.3249935,4.78097422 C16.3692368,4.8709089 16.4103199,4.96245918 16.4482427,5.05616357 C16.4361285,5.06316448 16.4261211,5.07231951 16.4140068,5.07932041 C16.3060321,5.14502119 16.2012175,5.21610729 16.1006167,5.2925787 C16.0400455,5.3378153 15.9831612,5.38628309 15.9257502,5.43528942 C15.8873007,5.46813981 15.8499046,5.50206726 15.8130351,5.53599472 C15.6012993,5.73040442 15.4132652,5.94689389 15.2515664,6.18330901 C15.2394522,6.20108054 15.2283913,6.21885206 15.2162771,6.23662358 C15.1230501,6.37771871 15.0398306,6.52419915 14.965565,6.67660343 C14.9471303,6.71376207 14.9281689,6.75092071 14.9107876,6.78861789 C14.8786585,6.86078104 14.8491629,6.93348273 14.8212475,7.00780001 C14.791752,7.08534848 14.7664701,7.16397401 14.7422416,7.2436766 C14.7222268,7.30991592 14.7022119,7.3756167 14.685884,7.44347161 C14.6569152,7.55925578 14.6342668,7.67719408 14.6163588,7.79674797 C14.6100384,7.84036898 14.6042446,7.88345146 14.5989775,7.92761101 C14.5815962,8.07516851 14.5700087,8.2243416 14.5700087,8.37620735 C14.5700087,8.47475853 14.5742223,8.57330971 14.5815962,8.67347648 C12.58538,9.04075464 11.0948017,10.8141373 11.0948017,12.9451046 C11.0948017,13.5611841 11.2248981,14.1718783 11.4745568,14.7335661 C10.9136148,15.346953 10.5986446,16.154211 10.5986446,17.006167 C10.5986446,18.2792544 11.3139115,19.4338649 12.4131471,19.9896289 C12.4105136,20.277743 12.4147273,20.5583177 12.424208,20.8335071 C12.4273682,20.9234417 12.4342154,21.0106838 12.438429,21.0995414 C12.447383,21.2826419 12.4579172,21.4652039 12.4726649,21.6434577 C12.4810922,21.7452401 12.4926798,21.8448683 12.5026872,21.9450351 C12.5190151,22.1060559 12.5369231,22.2659996 12.558518,22.4227121 C12.5722124,22.525033 12.5880136,22.6268154 12.6038148,22.7275207 C12.6275165,22.8783094 12.6533251,23.0274825 12.6817673,23.17504 C12.7007287,23.2746682 12.7207435,23.3737579 12.7418118,23.4723091 C12.7734141,23.6193281 12.8081767,23.76527 12.8445195,23.9095963 C12.8676945,24.0027621 12.8908696,24.095928 12.9156248,24.1880168 C12.9572346,24.339344 13.0025313,24.4885171 13.0494081,24.6366132 C13.07469,24.7179313 13.0989185,24.8003266 13.1257805,24.8811062 C13.1852983,25.05936 13.2506099,25.2354597 13.3180283,25.4110208 C13.336463,25.45895 13.3527909,25.5084949 13.3717523,25.5564242 C13.4597122,25.7782989 13.5539926,25.9985581 13.6545935,26.2166632 C13.6830356,26.2785943 13.714638,26.3399868 13.7441335,26.4013793 C13.8183991,26.5575533 13.893718,26.7131888 13.9743041,26.8682857 C14.017494,26.9512195 14.0638441,27.0341533 14.1091408,27.1176256 C14.1812996,27.2506428 14.253985,27.3836599 14.3308841,27.5156 C14.383028,27.6055347 14.4372788,27.6954694 14.4910028,27.7848655 C14.5663218,27.9103433 14.6432208,28.035821 14.7227535,28.1612987 C14.7812178,28.2539261 14.8412623,28.3465534 14.9018335,28.4391807 C14.983473,28.5635814 15.0672193,28.6879821 15.1530724,28.8129213 C15.2162771,28.9055486 15.2800085,28.9981759 15.3458468,29.0908033 C15.4359136,29.2178966 15.5291405,29.346067 15.6228942,29.4742374 C15.6897859,29.5652491 15.7550975,29.6562609 15.824096,29.7478111 C15.9262769,29.8840595 16.0331983,30.0219234 16.1401196,30.1597874 C16.2054312,30.2443367 16.2686359,30.327809 16.3355276,30.4128969 C16.3413214,30.4204364 16.3471151,30.4279758 16.3529089,30.4355153 C14.4183173,29.3336808 13.0509882,27.9938156 11.8590523,25.6005837 L11.8590523,25.6005837 L11.8590523,25.6005837 L11.8590523,25.6005837 L11.8590523,25.6005837 L11.8590523,25.6005837 L11.8590523,25.6005837 L11.8590523,25.6005837 L11.8590523,25.6005837 L11.8590523,25.6005837 L11.8590523,25.6005837 Z M27.0940268,16.6081926 L26.9539229,16.5844973 L26.4440714,16.7051282 L26.3882406,17.8936662 L26.9138933,17.9222083 C27.5622685,17.9561358 28.0447313,18.1710097 28.3886704,18.5776006 C28.8063484,19.0714335 28.9327578,19.7526753 28.9669937,20.2217358 C27.5180252,20.1253388 23.8342426,20.1398791 21.9059715,22.5309568 C20.4965059,24.27849 20.3527152,26.8758252 21.4777594,30.2513376 C21.7268914,30.9993572 21.2144064,31.43826 20.8867952,31.6337468 C20.8636201,31.6477486 20.8372848,31.6569036 20.813583,31.6698284 C19.7833459,29.0784171 19.1402377,26.7729657 18.7936651,24.7276249 C18.7915582,24.7147002 18.7905048,24.7023139 18.7878713,24.6899277 C18.5139841,23.0581787 18.4249708,21.5917587 18.476588,20.2782816 C19.2139765,18.992808 21.3813722,18.941109 21.4034939,18.9405705 C21.6942356,18.9357237 21.926513,18.6917692 21.9222994,18.3945 C21.9180857,18.099385 21.6837015,17.8635084 21.39612,17.8635084 L21.3897995,17.8635084 C21.3039464,17.8645855 19.8023073,17.8979744 18.610898,18.6616114 C18.7562689,17.59532 18.998027,16.6507366 19.2977228,15.8117052 C19.3272184,15.7750851 19.3540804,15.7352338 19.3740952,15.6894587 C19.4046442,15.6205267 19.4188652,15.5483636 19.4199186,15.4772775 C19.7975669,14.5057675 20.2521143,13.6904315 20.7250964,13.0102668 C23.0868466,12.5078174 24.8686934,13.2633764 24.9081964,13.2800709 C24.9771949,13.3113057 25.0488269,13.3253075 25.1183521,13.3253075 C25.321134,13.3253075 25.5144351,13.2046765 25.6013416,13.0032659 C25.7182704,12.7307692 25.5966013,12.4130359 25.3306147,12.293482 C25.2574025,12.2606316 23.8042204,11.6267806 21.7147772,11.7824161 C22.7350069,10.6940449 23.6314608,10.2007505 23.7647174,10.13128 C24.5300214,9.75646237 25.6482185,10.2406018 26.0153326,10.4597839 C26.0990789,10.5104058 26.1907258,10.5341012 26.2818459,10.5341012 C26.4619794,10.5341012 26.6378993,10.4393197 26.7358666,10.2691439 C26.8833443,10.0128031 26.8006515,9.68322215 26.5494126,9.53189493 C26.4893681,9.49527482 25.3053328,8.79518449 24.0923286,8.93574109 C24.1960897,8.49899243 24.4262603,8.10209506 24.5437157,7.94268988 C24.7201623,7.70681329 24.675919,7.36915433 24.444695,7.18874644 C24.2145244,7.00833854 23.8832263,7.05249809 23.7067797,7.28945174 C23.6735972,7.33307275 22.9825588,8.27011674 22.9841389,9.34879439 C22.2177815,9.82862553 20.2378932,11.2831978 18.8526561,14.2063442 C18.7778639,14.3635953 18.7057051,14.532694 18.6340731,14.7023313 C17.1972188,13.697971 17.4337099,11.911125 17.4468775,11.8244215 C17.4916475,11.5314606 17.2962396,11.2562713 17.0091847,11.2094191 C16.7226566,11.1598742 16.4519297,11.3629004 16.4061062,11.6563998 C16.2533614,12.6338336 16.4724712,14.6479397 18.2469441,15.7298485 C17.8550748,16.9081544 17.5580125,18.3147974 17.4663656,19.9750886 C17.4558315,20.0273261 17.4537247,20.077948 17.4579383,20.129647 C17.4031609,21.2934125 17.4558315,22.5842714 17.6391252,23.9979154 C16.9712619,23.6220207 16.6657723,23.0721805 16.6462842,23.0350219 C16.5088139,22.7738343 16.1917368,22.6736676 15.9357577,22.81207 C15.6787251,22.9504725 15.5791776,23.2762838 15.7150678,23.5396255 C15.7429832,23.5940171 16.3734504,24.7857863 17.8308463,25.2462303 C18.1847928,27.2323327 18.8068327,29.4526961 19.775972,31.9191682 C19.4430937,31.9143215 19.1149558,31.8297721 18.8347481,31.6493642 L18.8352748,31.6477486 C18.7783906,31.61059 18.730987,31.5745084 18.6846369,31.5378883 C18.6272259,31.489959 18.5692882,31.4431068 18.5187245,31.385484 C18.5160909,31.3827913 18.5129307,31.3800987 18.5102972,31.377406 L18.2890806,31.1199882 C14.9908469,27.2387951 13.3401499,24.3996595 13.4712997,19.65197 L13.4823606,19.2593809 L13.1199868,19.1290564 C12.2409142,18.8107845 11.64995,17.9577514 11.64995,17.0067056 C11.64995,16.3297721 11.943852,15.694844 12.4558103,15.2650962 L12.8013295,14.9753665 L12.5769527,14.5795462 C12.295165,14.081405 12.1461071,13.516486 12.1461071,12.9461816 C12.1461071,11.1905705 13.4913146,9.7586165 15.2083765,9.68483775 L15.8483244,9.65737266 L15.6987399,9.02082899 C15.6471227,8.80218539 15.6213141,8.58515739 15.6213141,8.37728441 C15.6213141,8.21195539 15.6392221,8.05093461 15.6671375,7.89260649 C15.6739847,7.85221666 15.6850455,7.81344243 15.6934728,7.77412966 C15.7208616,7.65080606 15.7550975,7.52963658 15.7982874,7.41277535 C15.8098749,7.38046348 15.8219891,7.34869015 15.8351568,7.31691682 C15.8925678,7.17851435 15.9578793,7.04388159 16.0358318,6.91786533 C16.0389921,6.91301855 16.0410989,6.90763324 16.0442591,6.90278646 C16.2138585,6.63136683 16.4303347,6.39387464 16.6794667,6.19677229 C16.7137026,6.16984574 16.7500453,6.14615037 16.7853346,6.12083941 C16.8696076,6.06052394 16.9570408,6.0061323 17.0476343,5.95604892 C17.1045185,5.92481412 17.1614028,5.89465638 17.2209206,5.86772983 C17.497968,5.74009798 17.7971371,5.65177889 18.1147409,5.62754499 L18.6014173,5.58984782 L18.6014173,5.08901397 L18.6003639,5.04700855 C18.6182719,3.95809881 19.4889171,3.07706205 20.5581306,3.07706205 C21.0342729,3.07706205 21.4977743,3.26231673 21.8627816,3.59889862 L22.2320026,3.93978876 L22.5859491,3.58220416 C22.9578036,3.2063095 23.4681819,3.02644014 23.9964681,3.09052533 C24.658011,3.17022792 25.2321206,3.67483149 25.4238417,4.34584115 C25.4875731,4.5671774 25.5065345,4.79228337 25.4807259,5.01469669 L25.4264752,5.61515878 L26.0190196,5.61515878 C27.5606884,5.61515878 28.8505917,6.84731777 28.9564596,8.4203669 L28.9806881,8.77418178 L29.3077726,8.89158154 C30.9210734,9.46996387 31.9808061,11.0311653 31.9455168,12.7765444 C31.9139145,14.3436697 30.9263405,15.7734695 29.4299684,16.4197068 C28.6767787,16.744441 27.9125281,16.8058335 27.0940268,16.6081926 L27.0940268,16.6081926 L27.0940268,16.6081926 L27.0940268,16.6081926 L27.0940268,16.6081926 L27.0940268,16.6081926 L27.0940268,16.6081926 L27.0940268,16.6081926 L27.0940268,16.6081926 L27.0940268,16.6081926 L27.0940268,16.6081926 Z" id="ensalada" fill="#9E9E9E"></path>
    </g>
</svg>