<?xml version="1.0" encoding="UTF-8"?>
<svg width="39px" height="34px" viewBox="0 0 39 34" version="1.1" xmlns="http://www.w3.org/2000/svg" xmlns:xlink="http://www.w3.org/1999/xlink">
    <!-- Generator: Sketch 57.1 (83088) - https://sketch.com -->
    <title>food/sandwich</title>
    <desc>Created with Sketch.</desc>
    <g id="food/sandwich" stroke="none" stroke-width="1" fill="none" fill-rule="evenodd">
        <path d="M37,16.6724138 C37,15.5392759 35.8250084,14.613069 33.9747899,14.2255862 L33.9747899,12.2758621 C33.9747899,12.2383448 33.9717647,12.2014138 33.9669244,12.1609655 L33.9675294,12.1463103 C33.9711597,12.0917931 33.9747899,12.0378621 33.9747899,11.9833448 C33.9747899,9.2357931 31.6677647,7.00058621 28.8319328,7.00058621 C28.6697815,7.00058621 28.5082353,7.00937931 28.3472941,7.02462069 C28.2680336,7.03165517 28.1905882,7.04455172 28.1125378,7.05568966 C28.0363025,7.06624138 27.9594622,7.07562069 27.8838319,7.08968966 C27.784,7.10786207 27.6865882,7.13072414 27.5885714,7.15475862 C27.5383529,7.16706897 27.4881345,7.1787931 27.438521,7.19227586 C27.3290084,7.22217241 27.221916,7.25617241 27.1160336,7.29251724 C27.0803361,7.30482759 27.0446387,7.31713793 27.0095462,7.33062069 C26.8970084,7.37224138 26.7862857,7.4167931 26.6773782,7.46603448 C26.6495462,7.47834483 26.6223193,7.49182759 26.5950924,7.50472414 C26.4825546,7.55748276 26.372437,7.61317241 26.2647395,7.67355172 C26.2417479,7.68644828 26.2193613,7.70051724 26.1969748,7.71341379 C26.0874622,7.77731034 25.9797647,7.84296552 25.8756975,7.91389655 C25.8557311,7.92737931 25.8369748,7.94203448 25.8176134,7.95610345 C25.7123361,8.03055172 25.6082689,8.10675862 25.509042,8.18824138 C25.5078319,8.18941379 25.5060168,8.19058621 25.5048067,8.19175862 C24.5790924,7.42968966 23.3962353,7.00175862 22.1770756,7.00175862 C22.0149244,7.00175862 21.8533782,7.01055172 21.692437,7.0257931 C21.6131765,7.03282759 21.5357311,7.04572414 21.4576807,7.05686207 C21.3814454,7.06741379 21.304605,7.0767931 21.2289748,7.09086207 C21.1291429,7.10903448 21.0317311,7.13189655 20.9337143,7.15593103 C20.8834958,7.16824138 20.8332773,7.17996552 20.7836639,7.19344828 C20.6741513,7.22334483 20.5670588,7.25734483 20.4611765,7.29368966 C20.425479,7.306 20.3897815,7.31831034 20.3546891,7.3317931 C20.2421513,7.37341379 20.1314286,7.41796552 20.022521,7.4672069 C19.9946891,7.47951724 19.9674622,7.493 19.9402353,7.50589655 C19.8276975,7.55865517 19.7175798,7.61434483 19.6098824,7.67472414 C19.5868908,7.68762069 19.5645042,7.70168966 19.5421176,7.71458621 C19.432605,7.77848276 19.3249076,7.84413793 19.2208403,7.91506897 C19.2008739,7.92855172 19.1821176,7.9432069 19.1627563,7.95727586 C19.057479,8.03172414 18.9534118,8.10793103 18.8541849,8.18941379 C18.8529748,8.19058621 18.8511597,8.19175862 18.8499496,8.19293103 C18.0234622,7.51234483 16.9912605,7.10082759 15.9118655,7.01993103 C15.8822185,7.01582759 15.8555966,7.00293103 15.8247395,7.00293103 C15.7763361,7.00293103 15.7297479,7.0087931 15.6819496,7.00996552 C15.6274958,7.00527586 15.5748571,7 15.5210084,7 C14.3018487,7 13.1189916,7.42793103 12.1932773,8.19 C11.267563,7.42793103 10.0847059,7 8.86554622,7 C6.02971429,7 3.72268908,9.2352069 3.72268908,11.9827586 C3.72268908,12.0378621 3.72631933,12.0917931 3.72994958,12.1457241 L3.73055462,12.1597931 C3.72571429,12.1978966 3.72268908,12.2365862 3.72268908,12.2758621 L3.72268908,14.2971034 C2.05579832,14.7232759 1,15.6225172 1,16.6724138 C1,17.7568966 2.08605042,18.6467586 3.72510924,19.0600345 C3.74870588,21.7876552 6.04484034,24 8.86554622,24 L28.8319328,24 C31.6278319,24 33.9058151,21.8257586 33.9687395,19.1309655 C35.7784202,18.7557931 37,17.8237241 37,16.6724138 L37,16.6724138 L37,16.6724138 L37,16.6724138 L37,16.6724138 L37,16.6724138 L37,16.6724138 L37,16.6724138 L37,16.6724138 L37,16.6724138 L37,16.6724138 Z M4.93277311,11.9827586 C4.93277311,9.8817931 6.69707563,8.17241379 8.86554622,8.17241379 C9.87778151,8.17241379 10.8198319,8.54231034 11.5519328,9.21234483 C11.0019496,10.0048966 10.6806723,10.958069 10.6806723,11.9827586 C10.6806723,12.306931 10.9511261,12.5689655 11.2857143,12.5689655 C11.6203025,12.5689655 11.8907563,12.306931 11.8907563,11.9827586 C11.8907563,9.93162069 13.5739832,8.258 15.6716639,8.18003448 C16.5447395,8.21168966 17.3597311,8.51593103 18.0246723,9.05465517 C17.4045042,9.87768966 17.0336134,10.8883103 17.0336134,11.9827586 C17.0336134,12.306931 17.3040672,12.5689655 17.6386555,12.5689655 C17.9732437,12.5689655 18.2436975,12.306931 18.2436975,11.9827586 C18.2436975,10.980931 18.6478655,10.0705517 19.3031261,9.38937931 C19.3866218,9.30262069 19.4737479,9.22113793 19.5632941,9.14317241 C19.5772101,9.13144828 19.589916,9.11913793 19.6038319,9.10741379 C19.6824874,9.04058621 19.7647731,8.97903448 19.8476639,8.91924138 C19.8761008,8.89872414 19.9039328,8.87703448 19.9329748,8.85768966 C19.9989244,8.81255172 20.0672941,8.77268966 20.1356639,8.73224138 C20.1834622,8.70410345 20.2306555,8.67362069 20.2802689,8.64724138 C20.3286723,8.62144828 20.3788908,8.59917241 20.4278992,8.57513793 C20.497479,8.54172414 20.5664538,8.50655172 20.6384538,8.47665517 C20.6681008,8.46434483 20.699563,8.45496552 20.7298151,8.44324138 C20.8211765,8.40806897 20.9125378,8.37348276 21.0069244,8.34475862 C21.0208403,8.34065517 21.0353613,8.33772414 21.0498824,8.33362069 C21.16,8.30137931 21.2713277,8.27265517 21.3856807,8.2497931 C21.3953613,8.24803448 21.405042,8.24744828 21.4147227,8.24510345 C21.5333109,8.22224138 21.6531092,8.20406897 21.7747227,8.19175862 C21.9078319,8.17886207 22.0421513,8.17182759 22.1776807,8.17182759 C23.1076303,8.17182759 23.9782857,8.48368966 24.6813445,9.05406897 C24.0611765,9.87710345 23.6902857,10.8877241 23.6902857,11.9821724 C23.6902857,12.3063448 23.9607395,12.5683793 24.2953277,12.5683793 C24.629916,12.5683793 24.9003697,12.3063448 24.9003697,11.9821724 C24.9003697,10.9803448 25.3045378,10.0699655 25.9597983,9.3887931 C26.0432941,9.30203448 26.1304202,9.22055172 26.2199664,9.14258621 C26.2338824,9.13086207 26.2465882,9.11855172 26.2605042,9.10682759 C26.3391597,9.04 26.4214454,8.97844828 26.5043361,8.91865517 C26.5327731,8.89813793 26.560605,8.87644828 26.5896471,8.85710345 C26.6555966,8.81196552 26.7239664,8.77210345 26.7923361,8.73165517 C26.8401345,8.70351724 26.8873277,8.67303448 26.9369412,8.64665517 C26.9853445,8.62086207 27.035563,8.59858621 27.0845714,8.57455172 C27.1541513,8.54113793 27.2231261,8.50596552 27.2951261,8.47606897 C27.3247731,8.46375862 27.3562353,8.45437931 27.3864874,8.44265517 C27.4778487,8.40748276 27.5692101,8.37289655 27.6635966,8.34417241 C27.6775126,8.34006897 27.6920336,8.33713793 27.7065546,8.33303448 C27.8166723,8.3007931 27.928,8.27206897 28.0423529,8.2492069 C28.0520336,8.24744828 28.0617143,8.24686207 28.071395,8.24451724 C28.1899832,8.22165517 28.3097815,8.20348276 28.431395,8.19117241 C28.5645042,8.17827586 28.6988235,8.17124138 28.8343529,8.17124138 C31.0028235,8.17124138 32.7671261,9.88062069 32.7671261,11.9815862 L32.7671261,14.567931 L32.7586555,14.65 C32.7580504,14.6623103 32.752605,14.6734483 32.751395,14.6857586 C32.7435294,14.7525862 32.7277983,14.8176552 32.6987563,14.8756897 C32.6981513,14.8768621 32.6975462,14.8774483 32.6969412,14.8780345 C32.6642689,14.941931 32.6207059,14.9993793 32.5680672,15.0474483 C32.5620168,15.0527241 32.5547563,15.055069 32.5487059,15.0603448 C32.4996975,15.1019655 32.4458487,15.1383103 32.3853445,15.1623448 C32.3157647,15.1893103 32.2401345,15.2063103 32.1608739,15.2063103 L30.4945882,15.2063103 L28.8174118,15.2063103 L23.8391261,15.2063103 L22.1510588,15.2063103 L16.5786218,15.2063103 L14.8917647,15.2063103 L9.92194958,15.2063103 L8.23388235,15.2063103 L5.53781513,15.2063103 C5.45915966,15.2063103 5.38413445,15.1893103 5.31515966,15.162931 C5.27462185,15.1471034 5.2407395,15.1207241 5.20504202,15.0966897 C5.18144538,15.0808621 5.15542857,15.0691379 5.1342521,15.0503793 C5.09371429,15.0140345 5.06104202,14.9694828 5.032,14.9225862 C5.02352941,14.9096897 5.01263866,14.8979655 5.00537815,14.8844828 C4.97936134,14.8346552 4.96423529,14.7789655 4.95334454,14.7215172 C4.9485042,14.6951379 4.93821849,14.6705172 4.9370084,14.6429655 L4.93277311,14.6042759 L4.93277311,12.2928621 L4.94426891,12.1914483 L4.93277311,11.9827586 L4.93277311,11.9827586 L4.93277311,11.9827586 L4.93277311,11.9827586 L4.93277311,11.9827586 L4.93277311,11.9827586 L4.93277311,11.9827586 L4.93277311,11.9827586 L4.93277311,11.9827586 L4.93277311,11.9827586 L4.93277311,11.9827586 Z M29.9833277,16.8928276 C29.9790924,16.9016207 29.9772773,16.9104138 29.972437,16.9192069 C29.9385546,16.9825172 29.8853109,17.047 29.8278319,17.1114828 C29.7951597,17.1472414 29.7588571,17.183 29.7189244,17.2181724 C29.6765714,17.2562759 29.6293782,17.2937931 29.5791597,17.3307241 C29.4998992,17.3887586 29.411563,17.4456207 29.3147563,17.5001379 C29.2857143,17.5165517 29.2566723,17.5329655 29.2264202,17.5487931 C29.1653109,17.5810345 29.1023866,17.6121034 29.0358319,17.6425862 C28.6812773,17.8020345 28.2710588,17.9257241 27.826958,18.0095517 C27.8251429,18.0095517 27.8239328,18.0101379 27.8221176,18.0101379 C27.6073277,18.0505862 27.3846723,18.081069 27.1565714,18.1021724 C26.92,18.1232759 26.6737479,18.1373448 26.4129748,18.1373448 C26.2302521,18.1373448 26.0493445,18.1291379 25.8708571,18.1168276 C25.8218487,18.1133103 25.7734454,18.1092069 25.724437,18.1045172 C25.5834622,18.0922069 25.4449076,18.0763793 25.3081681,18.0564483 C25.2694454,18.0505862 25.2295126,18.0464828 25.1907899,18.0400345 C25.0213782,18.013069 24.8562017,17.9808276 24.6970756,17.9427241 C24.6674286,17.9356897 24.6402017,17.9274828 24.6111597,17.9198621 C24.4816807,17.8870345 24.356437,17.8506897 24.2354286,17.8108276 C24.213042,17.8032069 24.1906555,17.7955862 24.1688739,17.7879655 C24.3062185,17.6191379 24.413916,17.440931 24.485916,17.2533448 C24.486521,17.2521724 24.4871261,17.2504138 24.4877311,17.2492414 C24.5210084,17.1624828 24.5464202,17.0739655 24.5639664,16.9836897 C24.5657815,16.976069 24.5682017,16.9690345 24.5700168,16.9614138 C24.5863529,16.8676207 24.5966387,16.7708966 24.5966387,16.6724138 C24.5966387,16.5733448 24.586958,16.4760345 24.5682017,16.3793103 L29.9325042,16.3793103 C29.9415798,16.3933793 29.9573109,16.4086207 29.9651765,16.4221034 C29.973042,16.4367586 29.9796975,16.4508276 29.9863529,16.4648966 C30.0196303,16.5358276 30.0420168,16.6055862 30.0420168,16.6724138 C30.0420168,16.7433448 30.0190252,16.8172069 29.9833277,16.8928276 L29.9833277,16.8928276 L29.9833277,16.8928276 L29.9833277,16.8928276 L29.9833277,16.8928276 L29.9833277,16.8928276 L29.9833277,16.8928276 L29.9833277,16.8928276 L29.9833277,16.8928276 L29.9833277,16.8928276 L29.9833277,16.8928276 Z M19.0756303,18.1056897 C19.0235966,18.101 18.9721681,18.0968966 18.9207395,18.0910345 C18.7041345,18.0681724 18.4923697,18.0388621 18.2896807,17.999 C18.266084,17.9943103 18.2436975,17.9878621 18.2201008,17.9831724 C18.0367731,17.945069 17.8613109,17.8993448 17.6937143,17.8483448 C17.6519664,17.8354483 17.6090084,17.8231379 17.5684706,17.8096552 C17.3911933,17.7510345 17.2235966,17.6859655 17.070521,17.6132759 C17.0614454,17.6091724 17.0541849,17.6044828 17.0451092,17.5997931 C17.0493445,17.593931 17.0517647,17.5874828 17.055395,17.5816207 C17.0923025,17.5235862 17.1261849,17.4649655 17.156437,17.4045862 C17.1697479,17.3782069 17.1806387,17.3506552 17.1927395,17.3242759 C17.214521,17.2750345 17.2356975,17.2252069 17.2520336,17.1742069 C17.2665546,17.1314138 17.2756303,17.0874483 17.286521,17.044069 C17.2955966,17.0059655 17.3070924,16.9684483 17.3131429,16.9297586 C17.3276639,16.8447586 17.3361345,16.7591724 17.3361345,16.6724138 C17.3361345,16.573931 17.3264538,16.4766207 17.3070924,16.3793103 L23.2697815,16.3793103 C23.2843025,16.401 23.3097143,16.4244483 23.3212101,16.4455517 C23.3218151,16.4467241 23.3224202,16.4478966 23.3230252,16.449069 C23.3647731,16.5270345 23.3865546,16.602069 23.3865546,16.6724138 C23.3865546,16.741 23.363563,16.8131034 23.3296807,16.8863793 C23.3151597,16.9168621 23.2921681,16.9485172 23.2715966,16.9795862 C23.2455798,17.0194483 23.2165378,17.0593103 23.1808403,17.0997586 C23.1439328,17.1413793 23.103395,17.1824138 23.0574118,17.2228621 C23.0277647,17.2492414 22.9932773,17.2756207 22.959395,17.302 C22.8970756,17.350069 22.8341513,17.3987241 22.7597311,17.4444483 C22.5963697,17.5452759 22.4088067,17.6349655 22.2049076,17.7158621 C22.1740504,17.7281724 22.1419832,17.7404828 22.109916,17.7522069 C21.9163025,17.8243103 21.7081681,17.8864483 21.4885378,17.9397931 C21.4673613,17.945069 21.448,17.950931 21.4262185,17.9556207 C21.3203361,17.9796552 21.2114286,18.0007586 21.1013109,18.0201034 C20.9476303,18.047069 20.7921345,18.0722759 20.6251429,18.0904483 C20.5646387,18.0968966 20.5017143,18.1004138 20.44,18.1056897 C20.2203697,18.1238621 19.9958992,18.137931 19.7563025,18.137931 C19.5251765,18.137931 19.2988908,18.1244483 19.0756303,18.1056897 L19.0756303,18.1056897 L19.0756303,18.1056897 L19.0756303,18.1056897 L19.0756303,18.1056897 L19.0756303,18.1056897 L19.0756303,18.1056897 L19.0756303,18.1056897 L19.0756303,18.1056897 L19.0756303,18.1056897 L19.0756303,18.1056897 Z M11.9536807,18.1174138 C11.9046723,18.1138966 11.8562689,18.1097931 11.8072605,18.1051034 C11.6662857,18.0927931 11.5277311,18.0769655 11.3909916,18.0570345 C11.3522689,18.0511724 11.3123361,18.047069 11.2736134,18.0406207 C11.1042017,18.0136552 10.9390252,17.9814138 10.7798992,17.9433103 C10.7502521,17.9362759 10.7230252,17.928069 10.6939832,17.9204483 C10.5645042,17.8876207 10.4392605,17.8512759 10.3182521,17.8114138 C10.2958655,17.8037931 10.273479,17.7961724 10.2516975,17.7885517 C10.389042,17.6197241 10.4967395,17.4415172 10.5687395,17.253931 C10.5693445,17.2527586 10.5699496,17.251 10.5705546,17.2498276 C10.6038319,17.163069 10.6292437,17.0745517 10.6467899,16.9842759 C10.648605,16.9766552 10.6510252,16.9696207 10.6528403,16.962 C10.6703866,16.8676207 10.6806723,16.7708966 10.6806723,16.6724138 C10.6806723,16.5733448 10.6709916,16.4760345 10.6522353,16.3793103 L16.0123025,16.3793103 C16.0244034,16.398069 16.0455798,16.4174138 16.0558655,16.4355862 C16.0594958,16.4426207 16.062521,16.4496552 16.0661513,16.4561034 C16.1036639,16.5311379 16.1260504,16.6038276 16.1260504,16.6724138 C16.1260504,16.7404138 16.1030588,16.8125172 16.0691765,16.8852069 C16.0582857,16.908069 16.0449748,16.9297586 16.0316639,16.9520345 C16.0008067,17.0036207 15.9608739,17.0557931 15.9142857,17.1079655 C15.8773782,17.1484138 15.8404706,17.1847586 15.8011429,17.2193448 C15.7678655,17.2492414 15.7291429,17.2785517 15.6910252,17.3078621 C15.6232605,17.3594483 15.5536807,17.4098621 15.4750252,17.4573448 C15.4556639,17.469069 15.4320672,17.4807931 15.4114958,17.4925172 C15.2451092,17.588069 15.0575462,17.6742414 14.853042,17.7504483 C14.8209748,17.7627586 14.7913277,17.7756552 14.7580504,17.7873793 C14.6570084,17.8225517 14.549916,17.8542069 14.4416134,17.8846897 C14.3798992,17.9022759 14.3151597,17.9181034 14.2504202,17.933931 C14.1221513,17.965 13.9914622,17.9937241 13.8553277,18.0183448 C13.7095126,18.0441379 13.5600672,18.0675862 13.4021513,18.0851724 C13.326521,18.0939655 13.2496807,18.0998276 13.1734454,18.1062759 C12.9556303,18.1238621 12.7335798,18.1385172 12.4957983,18.1385172 C12.3130756,18.137931 12.1321681,18.1297241 11.9536807,18.1174138 L11.9536807,18.1174138 L11.9536807,18.1174138 L11.9536807,18.1174138 L11.9536807,18.1174138 L11.9536807,18.1174138 L11.9536807,18.1174138 L11.9536807,18.1174138 L11.9536807,18.1174138 L11.9536807,18.1174138 L11.9536807,18.1174138 Z M2.21008403,16.6724138 C2.21008403,16.2778966 2.81270588,15.7514828 3.94110924,15.4466552 C3.95078992,15.4642414 3.96289076,15.4794828 3.97317647,15.4964828 C4.00342857,15.5468966 4.03307563,15.5973103 4.06816807,15.6442069 C4.11717647,15.7104483 4.17042017,15.7731724 4.22789916,15.8317931 C4.25996639,15.8640345 4.29445378,15.8927586 4.32894118,15.9226552 C4.3725042,15.9607586 4.41788235,15.9971034 4.46507563,16.0316897 C4.49835294,16.0557241 4.53102521,16.0797586 4.56672269,16.1014483 C4.64719328,16.1512759 4.73068908,16.197 4.81902521,16.2345172 C4.83959664,16.2433103 4.86137815,16.2485862 4.88255462,16.2567931 C4.96121008,16.2866897 5.04228571,16.3113103 5.12578151,16.330069 C5.15542857,16.3371034 5.18507563,16.3435517 5.21593277,16.3488276 C5.32,16.3664138 5.42709244,16.3793103 5.53781513,16.3793103 L9.35381513,16.3793103 C9.36833613,16.401 9.3937479,16.4244483 9.4052437,16.4455517 L9.40705882,16.449069 C9.44880672,16.5270345 9.47058824,16.602069 9.47058824,16.6724138 C9.47058824,16.741 9.44759664,16.8131034 9.41371429,16.8863793 C9.39919328,16.9168621 9.37620168,16.9485172 9.35563025,16.9795862 C9.32961345,17.0194483 9.30057143,17.0593103 9.26487395,17.0997586 C9.22796639,17.1413793 9.18742857,17.1824138 9.14144538,17.2228621 C9.11179832,17.2492414 9.07731092,17.2756207 9.04342857,17.302 C8.98110924,17.350069 8.91818487,17.3987241 8.84376471,17.4444483 C8.23690756,17.8178621 7.30998319,18.0541034 6.32315966,18.1156552 C6.27294118,18.1185862 6.22272269,18.120931 6.17129412,18.1226897 C6.01035294,18.1297241 5.84880672,18.1338276 5.68665546,18.1308966 C5.608,18.1297241 5.53478992,18.1238621 5.45794958,18.1203448 C5.11428571,18.1051034 4.77183193,18.0728621 4.44147899,18.0113103 L4.23757983,17.9732069 C2.95731092,17.695931 2.21008403,17.1208621 2.21008403,16.6724138 L2.21008403,16.6724138 L2.21008403,16.6724138 L2.21008403,16.6724138 L2.21008403,16.6724138 L2.21008403,16.6724138 L2.21008403,16.6724138 L2.21008403,16.6724138 L2.21008403,16.6724138 L2.21008403,16.6724138 L2.21008403,16.6724138 Z M32.7544202,19.291 C32.6092101,21.2647586 30.9048067,22.8275862 28.8319328,22.8275862 L8.86554622,22.8275862 C6.78359664,22.8275862 5.0737479,21.2518621 4.9412437,19.2663793 C5.10944538,19.2822069 5.28188235,19.2933448 5.4567395,19.3003793 C5.51421849,19.3027241 5.57169748,19.3033103 5.62978151,19.305069 C5.69996639,19.3062414 5.76894118,19.3103448 5.84033613,19.3103448 C5.89539496,19.3103448 5.94803361,19.3068276 6.00248739,19.3062414 C6.0587563,19.305069 6.11502521,19.3038966 6.17129412,19.3021379 C6.33707563,19.2962759 6.50043697,19.2868966 6.66016807,19.2734138 L6.66198319,19.2734138 C7.63912605,19.189 8.4994958,18.9574483 9.17169748,18.6168621 C9.17472269,18.6186207 9.17835294,18.6192069 9.18137815,18.6209655 C9.37983193,18.7200345 9.59643697,18.8073793 9.82272269,18.8865172 C9.85842017,18.8988276 9.89290756,18.9123103 9.92921008,18.9240345 C10.1530756,18.9978966 10.388437,19.0612069 10.633479,19.1145517 C10.676437,19.123931 10.719395,19.1327241 10.7623529,19.140931 C11.0116303,19.1907586 11.2681681,19.2317931 11.5325714,19.2593448 C11.5688739,19.2634483 11.6057815,19.2652069 11.642084,19.2687241 C11.9216134,19.2945172 12.2053782,19.3115172 12.4945882,19.3115172 C13.974521,19.3115172 15.2547899,18.9832414 16.1278655,18.4492069 C16.2428235,18.5189655 16.3656471,18.5852069 16.493916,18.6473448 C16.5284034,18.6643448 16.566521,18.6784138 16.6022185,18.6948276 C16.7062857,18.7423103 16.8121681,18.7886207 16.9228908,18.8308276 C16.9773445,18.8513448 17.0342185,18.8701034 17.0898824,18.8894483 C17.1878992,18.9234483 17.2871261,18.9568621 17.3899832,18.9873448 C17.4529076,19.0061034 17.517042,19.0225172 17.5817815,19.0395172 C17.6834286,19.0664828 17.7862857,19.0916897 17.891563,19.1145517 C17.9593277,19.1292069 18.0270924,19.1432759 18.0960672,19.1567586 C18.2049748,19.1778621 18.3156975,19.1954483 18.4276303,19.2124483 C18.495395,19.2224138 18.5625546,19.2329655 18.6309244,19.2417586 C18.7543529,19.257 18.8795966,19.2681379 19.0060504,19.2786897 C19.0659496,19.2833793 19.1252437,19.2904138 19.1857479,19.293931 C19.3733109,19.3056552 19.5632941,19.3121034 19.7550924,19.3121034 C21.0722689,19.3121034 22.2315294,19.0512414 23.0870588,18.6174483 C23.090084,18.6192069 23.0937143,18.6197931 23.0967395,18.6215517 C23.2951933,18.7206207 23.5117983,18.8079655 23.738084,18.8871034 C23.7737815,18.8994138 23.8082689,18.9128966 23.8445714,18.9246207 C24.068437,18.9984828 24.3037983,19.0617931 24.5488403,19.1151379 C24.5917983,19.1245172 24.6347563,19.1333103 24.6777143,19.1415172 C24.9269916,19.1913448 25.1835294,19.2323793 25.4479328,19.259931 C25.4842353,19.2640345 25.5211429,19.2657931 25.5574454,19.2693103 C25.8369748,19.2951034 26.1207395,19.3121034 26.4099496,19.3121034 C26.6616471,19.3121034 26.905479,19.2997931 27.1450756,19.2810345 C27.1680672,19.2792759 27.1904538,19.2775172 27.2134454,19.2757586 C27.9933445,19.2101034 28.6994286,19.0512414 29.295395,18.8167586 C29.3552941,18.8402069 29.4248739,18.8554483 29.4871933,18.8771379 C29.6287731,18.9269655 29.771563,18.9732759 29.9216134,19.0148966 C30.0317311,19.0453793 30.1430588,19.0723448 30.2574118,19.0981379 C30.4147227,19.1338966 30.5738487,19.1643793 30.7378151,19.1907586 C30.8576134,19.2101034 30.9768067,19.2276897 31.0996303,19.2423448 C31.2629916,19.2616897 31.426958,19.2745862 31.5939496,19.2851379 C31.7246387,19.2933448 31.8535126,19.3009655 31.9854118,19.3033103 C32.0434958,19.3044828 32.0997647,19.3115172 32.1584538,19.3115172 C32.3587227,19.3115172 32.5547563,19.3038966 32.7477647,19.2921724 C32.7507899,19.291 32.752605,19.291 32.7544202,19.291 L32.7544202,19.291 L32.7544202,19.291 L32.7544202,19.291 L32.7544202,19.291 L32.7544202,19.291 L32.7544202,19.291 L32.7544202,19.291 L32.7544202,19.291 L32.7544202,19.291 L32.7544202,19.291 Z M33.141042,18.0734483 C33.0472605,18.0851724 32.953479,18.0963103 32.8590924,18.1045172 C32.6533782,18.1221034 32.4410084,18.1332414 32.2171429,18.135 C32.1578487,18.1355862 32.0991597,18.1326552 32.0398655,18.132069 C31.8650084,18.1297241 31.6925714,18.1203448 31.5219496,18.1068621 C31.4541849,18.101 31.3858151,18.0974828 31.3192605,18.0904483 C31.1208067,18.0693448 30.9271933,18.0388621 30.7390252,18.0031034 C30.7087731,17.9972414 30.6797311,17.9902069 30.649479,17.9837586 L30.6506891,17.9825862 C30.7420504,17.8917241 30.8249412,17.797931 30.8963361,17.7000345 C30.9126723,17.6783448 30.9241681,17.6554828 30.9392941,17.6332069 C30.9883025,17.5611034 31.0324706,17.4872414 31.0699832,17.4122069 C31.0881345,17.3764483 31.1032605,17.3401034 31.1183866,17.3037586 C31.1474286,17.2351724 31.1704202,17.1648276 31.1897815,17.0938966 C31.1988571,17.0598966 31.2097479,17.0264828 31.2170084,16.9918966 C31.2381849,16.8875517 31.2521008,16.7814483 31.2521008,16.6724138 C31.2521008,16.573931 31.2424202,16.4760345 31.2236639,16.3793103 L32.1596639,16.3793103 C32.2691765,16.3793103 32.3762689,16.3664138 32.4809412,16.3476552 C32.5166387,16.3417931 32.5511261,16.333 32.5862185,16.3247931 C32.6539832,16.3083793 32.7199328,16.2884483 32.7846723,16.265 C32.823395,16.2515172 32.8621176,16.2392069 32.8990252,16.2227931 C32.9801008,16.1870345 33.0581513,16.1465862 33.1325714,16.0996897 C33.184,16.0680345 33.2305882,16.0311034 33.2777815,15.9947586 C33.3056134,15.9736552 33.3328403,15.9525517 33.3594622,15.9296897 C33.4090756,15.8868966 33.4556639,15.842931 33.500437,15.7954483 C33.5143529,15.7807931 33.5264538,15.7649655 33.5397647,15.7497241 C33.6353613,15.6401034 33.717042,15.5211034 33.7829916,15.3915517 C33.7854118,15.3874483 33.788437,15.3833448 33.7902521,15.3792414 C35.0523697,15.6600345 35.789916,16.2257241 35.789916,16.6724138 C35.789916,17.1888621 34.7988571,17.8712069 33.141042,18.0734483 L33.141042,18.0734483 L33.141042,18.0734483 L33.141042,18.0734483 L33.141042,18.0734483 L33.141042,18.0734483 L33.141042,18.0734483 L33.141042,18.0734483 L33.141042,18.0734483 L33.141042,18.0734483 Z M8.2605042,21.0689655 C8.59465968,21.0689655 8.86554622,20.8065117 8.86554622,20.4827586 C8.86554622,20.1590055 8.59465968,19.8965517 8.2605042,19.8965517 C7.92634872,19.8965517 7.65546218,20.1590055 7.65546218,20.4827586 C7.65546218,20.8065117 7.92634872,21.0689655 8.2605042,21.0689655 L8.2605042,21.0689655 L8.2605042,21.0689655 L8.2605042,21.0689655 L8.2605042,21.0689655 L8.2605042,21.0689655 L8.2605042,21.0689655 L8.2605042,21.0689655 L8.2605042,21.0689655 L8.2605042,21.0689655 Z M11.2857143,22.2413793 C11.6198698,22.2413793 11.8907563,21.9789255 11.8907563,21.6551724 C11.8907563,21.3314193 11.6198698,21.0689655 11.2857143,21.0689655 C10.9515588,21.0689655 10.6806723,21.3314193 10.6806723,21.6551724 C10.6806723,21.9789255 10.9515588,22.2413793 11.2857143,22.2413793 L11.2857143,22.2413793 L11.2857143,22.2413793 L11.2857143,22.2413793 L11.2857143,22.2413793 L11.2857143,22.2413793 L11.2857143,22.2413793 L11.2857143,22.2413793 L11.2857143,22.2413793 L11.2857143,22.2413793 Z M13.7058824,21.0689655 C14.0400378,21.0689655 14.3109244,20.8065117 14.3109244,20.4827586 C14.3109244,20.1590055 14.0400378,19.8965517 13.7058824,19.8965517 C13.3717269,19.8965517 13.1008403,20.1590055 13.1008403,20.4827586 C13.1008403,20.8065117 13.3717269,21.0689655 13.7058824,21.0689655 L13.7058824,21.0689655 L13.7058824,21.0689655 L13.7058824,21.0689655 L13.7058824,21.0689655 L13.7058824,21.0689655 L13.7058824,21.0689655 L13.7058824,21.0689655 L13.7058824,21.0689655 L13.7058824,21.0689655 Z M15.5210084,22.2413793 C15.8551639,22.2413793 16.1260504,21.9789255 16.1260504,21.6551724 C16.1260504,21.3314193 15.8551639,21.0689655 15.5210084,21.0689655 C15.1868529,21.0689655 14.9159664,21.3314193 14.9159664,21.6551724 C14.9159664,21.9789255 15.1868529,22.2413793 15.5210084,22.2413793 L15.5210084,22.2413793 L15.5210084,22.2413793 L15.5210084,22.2413793 L15.5210084,22.2413793 L15.5210084,22.2413793 L15.5210084,22.2413793 L15.5210084,22.2413793 L15.5210084,22.2413793 L15.5210084,22.2413793 Z M17.9411765,21.0689655 C18.2753319,21.0689655 18.5462185,20.8065117 18.5462185,20.4827586 C18.5462185,20.1590055 18.2753319,19.8965517 17.9411765,19.8965517 C17.607021,19.8965517 17.3361345,20.1590055 17.3361345,20.4827586 C17.3361345,20.8065117 17.607021,21.0689655 17.9411765,21.0689655 L17.9411765,21.0689655 L17.9411765,21.0689655 L17.9411765,21.0689655 L17.9411765,21.0689655 L17.9411765,21.0689655 L17.9411765,21.0689655 L17.9411765,21.0689655 L17.9411765,21.0689655 L17.9411765,21.0689655 Z M20.3613445,22.2413793 C20.6955,22.2413793 20.9663866,21.9789255 20.9663866,21.6551724 C20.9663866,21.3314193 20.6955,21.0689655 20.3613445,21.0689655 C20.0271891,21.0689655 19.7563025,21.3314193 19.7563025,21.6551724 C19.7563025,21.9789255 20.0271891,22.2413793 20.3613445,22.2413793 L20.3613445,22.2413793 L20.3613445,22.2413793 L20.3613445,22.2413793 L20.3613445,22.2413793 L20.3613445,22.2413793 L20.3613445,22.2413793 L20.3613445,22.2413793 L20.3613445,22.2413793 L20.3613445,22.2413793 Z M22.7815126,20.4827586 C23.1156681,20.4827586 23.3865546,20.2203049 23.3865546,19.8965517 C23.3865546,19.5727986 23.1156681,19.3103448 22.7815126,19.3103448 C22.4473571,19.3103448 22.1764706,19.5727986 22.1764706,19.8965517 C22.1764706,20.2203049 22.4473571,20.4827586 22.7815126,20.4827586 L22.7815126,20.4827586 L22.7815126,20.4827586 L22.7815126,20.4827586 L22.7815126,20.4827586 L22.7815126,20.4827586 L22.7815126,20.4827586 L22.7815126,20.4827586 L22.7815126,20.4827586 L22.7815126,20.4827586 Z M24.5966387,22.2413793 C24.9307941,22.2413793 25.2016807,21.9789255 25.2016807,21.6551724 C25.2016807,21.3314193 24.9307941,21.0689655 24.5966387,21.0689655 C24.2624832,21.0689655 23.9915966,21.3314193 23.9915966,21.6551724 C23.9915966,21.9789255 24.2624832,22.2413793 24.5966387,22.2413793 L24.5966387,22.2413793 L24.5966387,22.2413793 L24.5966387,22.2413793 L24.5966387,22.2413793 L24.5966387,22.2413793 L24.5966387,22.2413793 L24.5966387,22.2413793 L24.5966387,22.2413793 L24.5966387,22.2413793 Z M27.6218487,21.0689655 C27.9560042,21.0689655 28.2268908,20.8065117 28.2268908,20.4827586 C28.2268908,20.1590055 27.9560042,19.8965517 27.6218487,19.8965517 C27.2876933,19.8965517 27.0168067,20.1590055 27.0168067,20.4827586 C27.0168067,20.8065117 27.2876933,21.0689655 27.6218487,21.0689655 L27.6218487,21.0689655 L27.6218487,21.0689655 L27.6218487,21.0689655 L27.6218487,21.0689655 L27.6218487,21.0689655 L27.6218487,21.0689655 L27.6218487,21.0689655 L27.6218487,21.0689655 L27.6218487,21.0689655 Z M30.0420168,21.6551724 C30.3761723,21.6551724 30.6470588,21.3927186 30.6470588,21.0689655 C30.6470588,20.7452124 30.3761723,20.4827586 30.0420168,20.4827586 C29.7078613,20.4827586 29.4369748,20.7452124 29.4369748,21.0689655 C29.4369748,21.3927186 29.7078613,21.6551724 30.0420168,21.6551724 L30.0420168,21.6551724 L30.0420168,21.6551724 L30.0420168,21.6551724 L30.0420168,21.6551724 L30.0420168,21.6551724 L30.0420168,21.6551724 L30.0420168,21.6551724 L30.0420168,21.6551724 L30.0420168,21.6551724 Z" id="sandwich" fill="#9E9E9E"></path>
    </g>
</svg>