<?xml version="1.0" encoding="UTF-8" standalone="no"?>
<!-- Created with Inkscape (http://www.inkscape.org/) -->

<svg
   xmlns:dc="http://purl.org/dc/elements/1.1/"
   xmlns:cc="http://creativecommons.org/ns#"
   xmlns:rdf="http://www.w3.org/1999/02/22-rdf-syntax-ns#"
   xmlns:svg="http://www.w3.org/2000/svg"
   xmlns="http://www.w3.org/2000/svg"
   xmlns:sodipodi="http://sodipodi.sourceforge.net/DTD/sodipodi-0.dtd"
   xmlns:inkscape="http://www.inkscape.org/namespaces/inkscape"
   version="1.1"
   id="svg2"
   width="512"
   height="512"
   viewBox="0 0 512 512"
   sodipodi:docname="arrow_back.svg"
   inkscape:version="0.92.4 (5da689c313, 2019-01-14)">
  <metadata
     id="metadata8">
    <rdf:RDF>
      <cc:Work
         rdf:about="">
        <dc:format>image/svg+xml</dc:format>
        <dc:type
           rdf:resource="http://purl.org/dc/dcmitype/StillImage" />
        <dc:title></dc:title>
      </cc:Work>
    </rdf:RDF>
  </metadata>
  <defs
     id="defs6" />
  <sodipodi:namedview
     pagecolor="#ffffff"
     bordercolor="#666666"
     borderopacity="1"
     objecttolerance="10"
     gridtolerance="10"
     guidetolerance="10"
     inkscape:pageopacity="0"
     inkscape:pageshadow="2"
     inkscape:window-width="1318"
     inkscape:window-height="711"
     id="namedview4"
     showgrid="false"
     inkscape:zoom="0.4609375"
     inkscape:cx="256"
     inkscape:cy="256"
     inkscape:window-x="48"
     inkscape:window-y="20"
     inkscape:window-maximized="1"
     inkscape:current-layer="svg2" />
  <path
     style="fill:#000000;stroke-width:1.30006611"
     d="m 374.68672,4.8492128 c 10.14154,4.5267943 14.87801,18.0781412 9.77981,27.9806682 -1.11459,2.164952 -50.62301,54.225093 -110.01872,115.689189 L 166.45563,260.27198 279.43194,369.47691 c 101.01294,97.64091 113.14021,109.78726 114.52394,114.70398 4.26191,15.14343 -8.12289,28.71482 -23.87114,26.15829 C 365.73769,509.6335 351.51412,496.34568 241.96359,390.64721 131.95819,284.50989 118.57625,271.17206 117.27806,266.37285 114.05284,254.44982 107.87506,261.62052 234.8029,129.95874 298.83987,63.53343 352.77264,8.0224485 354.65352,6.6010177 c 5.14264,-3.8864714 13.59497,-4.6255889 20.0332,-1.7518049 z"
     id="path817"
     inkscape:connector-curvature="0" />
</svg>
